name,status,type,data_source_slider,parent_id,data_source_item,order_number
Template 1,1,0,"{""customClass"":"""",""numOfItemsShow"":1,""optionChooseNumOfItemShow"":[1],""sliderAnimate"":""0"",""sliderAnimateOut"":""0"",""sliderMargin"":0,""sliderArrows"":true,""sliderDots"":0,""autoHeight"":0,""sliderLoop"":0,""autoPlay"":0,""autoPlaySpeed"":0,""pauseHover"":0,""draggable"":1,""centerMode"":0,""customCss"":""@import url('https:\/\/fonts.googleapis.com\/css?family=Poppins:400,600&display=swap');\n.magenest-banner.template-1 .content-box--html p {\n                    text-align: center;\n                    font-size: 20px;\n                    font-family: 'Poppins';\n                    color: #fff;\n                }\n.magenest-banner.template-1 .content-box--html h3 {\n                    text-align: center;\n                    font-size: 42px;\n                    font-family: 'Poppins';\n                    color: #fff;\n        }\n.magenest-banner.template-1 .magenest-button {\n            background-color: transparent;\n            border: 2px solid #ffffff;\n    }""}",0,"{""id"":""10"",""orderId"":""1"",""itemName"":""Slider Item 1"",""customImageUrl"":{""name"":""template-food_optimized.jpg"",""type"":""image\/png"",""tmp_name"":""\/tmp\/phpgx6vVs"",""error"":0,""size"":903029,""file"":""template-food_optimized.jpg"",""url"":""template-food_optimized.jpg"",""previewType"":""image"",""id"":""dGVtcGxhdGUtZm9vZF9vcHRpbWl6ZWQucG5n"",""previewWidth"":5167,""previewHeight"":958},""bgImageType"":""customImage"",""bgImage"":""pub\/media\/catalog\/tmp\/category\/template-food_optimized.jpg"",""bgPosition"":""center center"",""bgRepeat"":""repeat"",""bgSize"":""cover"",""itemCustomClass"":""template-1"",""staticLink"":"""",""paddingTop"":""30"",""paddingRight"":15,""paddingBottom"":""30"",""paddingLeft"":15,""marginTop"":0,""marginRight"":0,""marginBottom"":0,""marginLeft"":0,""contentPaddingTop"":15,""contentPaddingRight"":15,""contentPaddingBottom"":15,""contentPaddingLeft"":15,""contentMarginTop"":0,""contentMarginRight"":0,""contentMarginBottom"":0,""contentMarginLeft"":0,""contentWidth"":""70"",""contentWidthUnit"":""%"",""contentHeight"":"""",""contentHeightUnit"":""px"",""contentPosition"":""right"",""contentBgColor"":""#000000"",""contentOpacity"":0,""contentAnimation"":""0"",""contentAnimationDelay"":0,""blocks"":[{""blockId"":""block-7914375"",""type"":""html"",""customClass"":"""",""position"":""center"",""textAlign"":""left"",""contentType"":""custom"",""content"":""<h3>Go GREEN DIET<\/h3>\n<p>Refresh yourself with our amazing vegan menu!<\/p>"",""fontSize"":""14"",""textColor"":""#F26321"",""textColorHover"":""#ffffff"",""bgColor"":""#ffffff"",""bgColorHover"":""#F26321"",""borderColor"":""#F26321"",""borderColorHover"":""#F26321"",""btnUrl"":""customLink"",""customLink"":"""",""animation"":""0"",""animationDelay"":0,""paddingTop"":0,""paddingRight"":0,""paddingBottom"":0,""paddingLeft"":0,""marginTop"":0,""marginRight"":0,""marginBottom"":0,""marginLeft"":0,""width"":100,""widthUnit"":""%""},{""blockId"":""block-7623953"",""type"":""button"",""customClass"":"""",""position"":""center"",""textAlign"":""left"",""contentType"":""custom"",""content"":""BUY NOW"",""fontSize"":""14"",""textColor"":""#ffffff"",""textColorHover"":""#ffffff"",""bgColor"":""#ffffff"",""bgColorHover"":""#F26321"",""borderColor"":""#ffffff"",""borderColorHover"":""#F26321"",""btnUrl"":""customLink"",""customLink"":"""",""animation"":""0"",""animationDelay"":0,""paddingTop"":0,""paddingRight"":0,""paddingBottom"":0,""paddingLeft"":0,""marginTop"":0,""marginRight"":0,""marginBottom"":0,""marginLeft"":0,""width"":""150"",""widthUnit"":""px""}]}",1
Template 2,1,0,"{""customClass"":"""",""numOfItemsShow"":1,""optionChooseNumOfItemShow"":[1],""sliderAnimate"":""0"",""sliderAnimateOut"":""0"",""sliderMargin"":0,""sliderArrows"":true,""sliderDots"":0,""autoHeight"":0,""sliderLoop"":0,""autoPlay"":0,""autoPlaySpeed"":0,""pauseHover"":0,""draggable"":1,""centerMode"":0,""customCss"":""@import url('https:\/\/fonts.googleapis.com\/css?family=Poppins:400,600&display=swap');\n.magenest-banner.template-2 .content-box--html h2 {\n                    text-align: left;\n                    font-size: 58px;\n                    font-family: 'Poppins';\n                    color: #e89100;\n                    font-weight: bold;\n                    margin: 0;\n                }\n.magenest-banner.template-2 .content-box--html p {\n                    text-align: left;\n                    font-size: 20px;\n                    font-family: 'Poppins';\n                    color: #e89100;\n                    margin-left: 14px;\n    \n            }\n.magenest-banner.template-2  .content-box--button {\n               text-transform: uppercase;\n                width: 50%;\n                float: left;\n    \n}""}",0,"{""id"":""11"",""orderId"":""1"",""itemName"":""Slider Item 1"",""customImageUrl"":{""name"":""template-vitamin-2_optimized.jpg"",""type"":""image\/png"",""tmp_name"":""\/tmp\/phpVl6L7c"",""error"":0,""size"":591560,""file"":""template-vitamin-2_optimized.jpg"",""url"":""template-vitamin-2_optimized.jpg"",""previewType"":""image"",""id"":""dGVtcGxhdGUtdml0YW1pbi0yX29wdGltaXplZC5wbmc,"",""previewWidth"":5167,""previewHeight"":958},""bgImageType"":""customImage"",""bgImage"":""pub\/media\/catalog\/tmp\/category\/template-vitamin-2_optimized.jpg"",""bgPosition"":""center center"",""bgRepeat"":""no-repeat"",""bgSize"":""cover"",""itemCustomClass"":""template-2"",""staticLink"":"""",""paddingTop"":15,""paddingRight"":15,""paddingBottom"":15,""paddingLeft"":15,""marginTop"":0,""marginRight"":0,""marginBottom"":0,""marginLeft"":0,""contentPaddingTop"":15,""contentPaddingRight"":15,""contentPaddingBottom"":15,""contentPaddingLeft"":15,""contentMarginTop"":0,""contentMarginRight"":0,""contentMarginBottom"":0,""contentMarginLeft"":0,""contentWidth"":""40"",""contentWidthUnit"":""%"",""contentHeight"":"""",""contentHeightUnit"":""px"",""contentPosition"":""center"",""contentBgColor"":""#000000"",""contentOpacity"":0,""contentAnimation"":""0"",""contentAnimationDelay"":0,""blocks"":[{""blockId"":""block-9166647"",""type"":""html"",""customClass"":"""",""position"":""left"",""textAlign"":""left"",""contentType"":""custom"",""content"":""<h2>Vitamin C<\/h2>\n<p>Do you know your Vitamin?<\/p>"",""fontSize"":""14"",""textColor"":""#F26321"",""textColorHover"":""#ffffff"",""bgColor"":""#ffffff"",""bgColorHover"":""#F26321"",""borderColor"":""#F26321"",""borderColorHover"":""#F26321"",""btnUrl"":""customLink"",""customLink"":"""",""animation"":""0"",""animationDelay"":0,""paddingTop"":0,""paddingRight"":0,""paddingBottom"":0,""paddingLeft"":0,""marginTop"":""50"",""marginRight"":""30"",""marginBottom"":""50"",""marginLeft"":""30"",""width"":100,""widthUnit"":""%""},{""blockId"":""block-7741922"",""type"":""button"",""customClass"":""read-more"",""position"":""center"",""textAlign"":""left"",""contentType"":""custom"",""content"":""Read More"",""fontSize"":""18"",""textColor"":""#e89100"",""textColorHover"":""#ffffff"",""bgColor"":""#ffffff"",""bgColorHover"":""#e89100"",""borderColor"":""#e89100"",""borderColorHover"":""#e89100"",""btnUrl"":""customLink"",""customLink"":"""",""animation"":""fadeInLeft"",""animationDelay"":0,""paddingTop"":0,""paddingRight"":0,""paddingBottom"":0,""paddingLeft"":0,""marginTop"":0,""marginRight"":0,""marginBottom"":""20"",""marginLeft"":0,""width"":""180"",""widthUnit"":""px""},{""blockId"":""block-5976881"",""type"":""button"",""customClass"":""about"",""position"":""center"",""textAlign"":""left"",""contentType"":""custom"",""content"":""About"",""fontSize"":""18"",""textColor"":""#ffffff"",""textColorHover"":""#e89100"",""bgColor"":""#e89100"",""bgColorHover"":""#ffffff"",""borderColor"":""#e89100"",""borderColorHover"":""#e89100"",""btnUrl"":""customLink"",""customLink"":"""",""animation"":""fadeInRight"",""animationDelay"":0,""paddingTop"":0,""paddingRight"":0,""paddingBottom"":0,""paddingLeft"":0,""marginTop"":0,""marginRight"":0,""marginBottom"":""20"",""marginLeft"":0,""width"":""180"",""widthUnit"":""px""}]}",1
Template-9,1,0,"{""customClass"":""magenest-slider-syncing-template-demo"",""numOfItemsShow"":1,""optionChooseNumOfItemShow"":[1],""sliderAnimate"":""0"",""sliderAnimateOut"":""0"",""sliderMargin"":0,""sliderArrows"":true,""sliderDots"":0,""autoHeight"":0,""sliderLoop"":0,""autoPlay"":0,""autoPlaySpeed"":0,""pauseHover"":0,""draggable"":1,""centerMode"":0,""customCss"":""@import url('https:\/\/fonts.googleapis.com\/css?family=Dancing+Script');\n.dancing-font{font-family: 'Dancing Script', cursive;}\n.magenest-slider-syncing-template {\nmargin-bottom: 30px;\n}""}",0,"{""id"":""61"",""orderId"":""1"",""categoryId"":""4"",""itemName"":""Slider Item 1"",""imgCateUrl"":"""",""categoryTitle"":""Bags"",""categoryDesc"":null,""categoryUrl"":""http:\/\/127.0.0.1\/megamenu\/gear\/bags.html"",""customImageUrl"":{""name"":""template-psd-9_1.jpg"",""type"":""image\/png"",""tmp_name"":""\/tmp\/phpwhufD1"",""error"":0,""size"":245010,""file"":""template-psd-9.jpg"",""url"":""template-psd-9.jpg"",""previewType"":""image"",""id"":""dGVtcGxhdGUtcHNkLTlfMS5wbmc,"",""previewWidth"":5167,""previewHeight"":958},""bgImageType"":""customImage"",""bgImage"":""pub\/media\/catalog\/tmp\/category\/template-psd-9.jpg"",""bgPosition"":""top center"",""bgRepeat"":""no-repeat"",""bgSize"":""cover"",""itemCustomClass"":""template-9"",""staticLink"":"""",""paddingTop"":""0"",""paddingRight"":""0"",""paddingBottom"":""0"",""paddingLeft"":""0"",""marginTop"":0,""marginRight"":0,""marginBottom"":0,""marginLeft"":0,""contentPaddingTop"":""0"",""contentPaddingRight"":""0"",""contentPaddingBottom"":""0"",""contentPaddingLeft"":""0"",""contentMarginTop"":0,""contentMarginRight"":0,""contentMarginBottom"":0,""contentMarginLeft"":0,""contentWidth"":100,""contentWidthUnit"":""%"",""contentHeight"":"""",""contentHeightUnit"":""px"",""contentPosition"":""left"",""contentBgColor"":""#000000"",""contentOpacity"":0,""contentAnimation"":""0"",""contentAnimationDelay"":0,""blocks"":[{""blockId"":""block-9520036"",""type"":""html"",""customClass"":"""",""position"":""left"",""textAlign"":""left"",""contentType"":""custom"",""content"":""<h3>YOUR CUSTOMIZED ONLINE COURSES<\/h3>\n"",""fontSize"":""14"",""textColor"":""#F26321"",""textColorHover"":""#ffffff"",""bgColor"":""#ffffff"",""bgColorHover"":""#F26321"",""borderColor"":""#F26321"",""borderColorHover"":""#F26321"",""btnUrl"":""customLink"",""customLink"":"""",""animation"":""0"",""animationDelay"":0,""paddingTop"":""50"",""paddingRight"":""50"",""paddingBottom"":""50"",""paddingLeft"":""50"",""marginTop"":0,""marginRight"":0,""marginBottom"":0,""marginLeft"":0,""width"":""60"",""widthUnit"":""%""}]}",1
Template 8,1,0,"{""customClass"":"""",""numOfItemsShow"":1,""optionChooseNumOfItemShow"":[1],""sliderAnimate"":""0"",""sliderAnimateOut"":""0"",""sliderMargin"":0,""sliderArrows"":true,""sliderDots"":0,""autoHeight"":0,""sliderLoop"":0,""autoPlay"":0,""autoPlaySpeed"":0,""pauseHover"":0,""draggable"":1,""centerMode"":0,""customCss"":""@import url('https:\/\/fonts.googleapis.com\/css?family=Poppins:400,600&display=swap');\n.magenest-banner.template-8 .content-box--button a{\n    background-color: transparent;\n}\n.magenest-banner.template-8 .content-box--text {\ntext-shadow: 8px 10px 10px #000000;\n}\n.magenest-banner.template-8 .content-box--text h3{\nfont-weight: normal;\n    font-family: 'Poppins';\n    letter-spacing: 5px;\n}""}",0,"{""id"":""62"",""orderId"":""1"",""itemName"":""Slider Item 1"",""customImageUrl"":{""name"":""template-psd-8.jpg"",""type"":""image\/png"",""tmp_name"":""\/tmp\/phpWJYaWX"",""error"":0,""size"":891435,""file"":""template-psd-8.jpg"",""url"":""template-psd-8.jpg"",""previewType"":""image"",""id"":""dGVtcGxhdGUtcHNkLTgucG5n"",""previewWidth"":5167,""previewHeight"":958},""bgImageType"":""customImage"",""bgImage"":""pub\/media\/catalog\/tmp\/category\/template-psd-8.jpg"",""bgPosition"":""center center"",""bgRepeat"":""repeat"",""bgSize"":""cover"",""itemCustomClass"":""template-8"",""staticLink"":"""",""paddingTop"":15,""paddingRight"":15,""paddingBottom"":15,""paddingLeft"":15,""marginTop"":0,""marginRight"":0,""marginBottom"":0,""marginLeft"":0,""contentPaddingTop"":15,""contentPaddingRight"":15,""contentPaddingBottom"":15,""contentPaddingLeft"":15,""contentMarginTop"":0,""contentMarginRight"":0,""contentMarginBottom"":0,""contentMarginLeft"":0,""contentWidth"":""50"",""contentWidthUnit"":""%"",""contentHeight"":"""",""contentHeightUnit"":""px"",""contentPosition"":""right"",""contentBgColor"":""#000000"",""contentOpacity"":0,""contentAnimation"":""0"",""contentAnimationDelay"":0,""blocks"":[{""blockId"":""block-8356555"",""type"":""text"",""customClass"":"""",""position"":""center"",""textAlign"":""center"",""contentType"":""custom"",""content"":""AMAZING LENSE"",""fontSize"":""60"",""textColor"":""#faf7f7"",""textColorHover"":""#ffffff"",""bgColor"":""#ffffff"",""bgColorHover"":""#F26321"",""borderColor"":""#F26321"",""borderColorHover"":""#F26321"",""btnUrl"":""customLink"",""customLink"":"""",""animation"":""bounceIn"",""animationDelay"":0,""paddingTop"":0,""paddingRight"":0,""paddingBottom"":0,""paddingLeft"":0,""marginTop"":""40"",""marginRight"":0,""marginBottom"":""30"",""marginLeft"":0,""width"":100,""widthUnit"":""%""},{""blockId"":""block-8604465"",""type"":""button"",""customClass"":"""",""position"":""center"",""textAlign"":""left"",""contentType"":""custom"",""content"":""LEARN MORE"",""fontSize"":""18"",""textColor"":""#ffffff"",""textColorHover"":""#ffffff"",""bgColor"":""#ffffff"",""bgColorHover"":""#F26321"",""borderColor"":""#ffffff"",""borderColorHover"":""#F26321"",""btnUrl"":""customLink"",""customLink"":"""",""animation"":""0"",""animationDelay"":0,""paddingTop"":0,""paddingRight"":0,""paddingBottom"":0,""paddingLeft"":0,""marginTop"":0,""marginRight"":0,""marginBottom"":""20"",""marginLeft"":0,""width"":""200"",""widthUnit"":""px""}]}",1
Slider 1,1,1,"{""customClass"":"""",""numOfItemsShow"":1,""optionChooseNumOfItemShow"":[1,2],""sliderAnimate"":""0"",""sliderAnimateOut"":""0"",""sliderMargin"":0,""sliderArrows"":true,""sliderDots"":true,""autoHeight"":0,""sliderLoop"":true,""autoPlay"":true,""autoPlaySpeed"":""4000"",""pauseHover"":true,""draggable"":1,""centerMode"":0,""customCss"":""@import url('https:\/\/fonts.googleapis.com\/css?family=Poppins:400,600&display=swap');\n.slider-item-container.template-2 .content-box--html h2 {\n                    text-align: left;\n                    font-size: 58px;\n                    font-family: 'Poppins';\n                    color: #e89100;\n                    font-weight: bold;\n                    margin: 0;\n                }\n.slider-item-container.template-2 .content-box--html p {\n                    text-align: left;\n                    font-size: 20px;\n                    font-family: 'Poppins';\n                    color: #e89100;\n                    margin-left: 14px;\n    \n            }\n.slider-item-container.template-2  .content-box--button {\n               text-transform: uppercase;\n                width: 50%;\n                float: left;\n    \n}\n@import url('https:\/\/fonts.googleapis.com\/css?family=Poppins:400,600&display=swap');\n.slider-item-container.template-1 .content-box--html p {\n                    text-align: center;\n                    font-size: 20px;\n                    font-family: 'Poppins';\n                    color: #fff;\n                }\n.slider-item-container.template-1 .content-box--html h3 {\n                    text-align: center;\n                    font-size: 42px;\n                    font-family: 'Poppins';\n                    color: #fff;\n        }\n.slider-item-container.template-1 .magenest-button {\n            background-color: transparent;\n            border: 2px solid #ffffff;\n    }""}",0,"{""id"":""65"",""orderId"":""0"",""itemName"":""Slider Item 1"",""customImageUrl"":{""name"":""template-vitamin-2_optimized.jpg"",""type"":""image\/png"",""tmp_name"":""\/tmp\/phpvXIMT4"",""error"":0,""size"":591560,""file"":""template-vitamin-2_optimized.jpg"",""url"":""template-vitamin-2_optimized.jpg"",""previewType"":""image"",""id"":""dGVtcGxhdGUtdml0YW1pbi0yX29wdGltaXplZF8xLnBuZw,,"",""previewWidth"":5167,""previewHeight"":958},""bgImageType"":""customImage"",""bgImage"":""pub\/media\/catalog\/tmp\/category\/template-vitamin-2_optimized.jpg"",""bgPosition"":""center center"",""bgRepeat"":""no-repeat"",""bgSize"":""cover"",""itemCustomClass"":""template-2"",""staticLink"":""https:\/\/magenest.com\/en\/"",""paddingTop"":15,""paddingRight"":15,""paddingBottom"":15,""paddingLeft"":15,""marginTop"":0,""marginRight"":0,""marginBottom"":0,""marginLeft"":0,""contentPaddingTop"":15,""contentPaddingRight"":15,""contentPaddingBottom"":15,""contentPaddingLeft"":15,""contentMarginTop"":0,""contentMarginRight"":0,""contentMarginBottom"":0,""contentMarginLeft"":0,""contentWidth"":""40"",""contentWidthUnit"":""%"",""contentHeight"":"""",""contentHeightUnit"":""px"",""contentPosition"":""center"",""contentBgColor"":""#000000"",""contentOpacity"":0,""contentAnimation"":""0"",""contentAnimationDelay"":0,""blocks"":[{""blockId"":""block-8030475"",""type"":""html"",""customClass"":"""",""position"":""left"",""textAlign"":""left"",""contentType"":""custom"",""content"":""<h2>Vitamin C<\/h2>\n<p>Do you know your Vitamin?<\/p>"",""fontSize"":""14"",""textColor"":""#F26321"",""textColorHover"":""#ffffff"",""bgColor"":""#ffffff"",""bgColorHover"":""#F26321"",""borderColor"":""#F26321"",""borderColorHover"":""#F26321"",""btnUrl"":""customLink"",""customLink"":"""",""animation"":""tada"",""animationDelay"":0,""paddingTop"":0,""paddingRight"":0,""paddingBottom"":0,""paddingLeft"":0,""marginTop"":""50"",""marginRight"":""50"",""marginBottom"":""50"",""marginLeft"":""50"",""width"":100,""widthUnit"":""%""},{""blockId"":""block-4885869"",""type"":""button"",""customClass"":"""",""position"":""center"",""textAlign"":""left"",""contentType"":""custom"",""content"":""Read More"",""fontSize"":""18"",""textColor"":""#e89100"",""textColorHover"":""#ffffff"",""bgColor"":""#ffffff"",""bgColorHover"":""#e89100"",""borderColor"":""#e89100"",""borderColorHover"":""#e89100"",""btnUrl"":""customLink"",""customLink"":"""",""animation"":""bounceInLeft"",""animationDelay"":0,""paddingTop"":0,""paddingRight"":0,""paddingBottom"":0,""paddingLeft"":0,""marginTop"":0,""marginRight"":0,""marginBottom"":""20"",""marginLeft"":0,""width"":""180"",""widthUnit"":""px""},{""blockId"":""block-5406096"",""type"":""button"",""customClass"":"""",""position"":""center"",""textAlign"":""left"",""contentType"":""custom"",""content"":""About"",""fontSize"":""18"",""textColor"":""#ffffff"",""textColorHover"":""#e89100"",""bgColor"":""#e89100"",""bgColorHover"":""#ffffff"",""borderColor"":""#e89100"",""borderColorHover"":""#e89100"",""btnUrl"":""customLink"",""customLink"":"""",""animation"":""bounceInRight"",""animationDelay"":0,""paddingTop"":0,""paddingRight"":0,""paddingBottom"":0,""paddingLeft"":0,""marginTop"":0,""marginRight"":0,""marginBottom"":""20"",""marginLeft"":0,""width"":""180"",""widthUnit"":""px""}],""blockSelecting"":2}",0
slider syncing 1,1,2,"{""customClass"":"""",""numOfItemsShow"":1,""optionChooseNumOfItemShow"":[1,2],""sliderAnimate"":""0"",""sliderAnimateOut"":""0"",""sliderMargin"":0,""sliderArrows"":true,""sliderDots"":0,""autoHeight"":0,""sliderLoop"":0,""autoPlay"":0,""autoPlaySpeed"":0,""pauseHover"":0,""draggable"":1,""centerMode"":0,""customCss"":""@import url('https:\/\/fonts.googleapis.com\/css?family=Poppins:400,700,800&display=swap');\n@import url('https:\/\/fonts.googleapis.com\/css?family=Pacifico&display=swap');\n.slider-item-container.sync-1 .content-box--html p {\nfont-family: 'Poppins';\n    font-size: 30px;\n    font-weight: 800;\n    margin: 0;\n}\n.slider-item-container.sync-1 .content-box--text h3{\nmargin: 0;\n    color: #FDFCFA;\n    font-size: inherit;\n    display: inline-block;\n    background: #acacac;\n    padding: 5px 20px;\n    border-radius: 20px;\n    box-shadow: 0px 1px 3px #000;\n}\n.magenest-slider.sync1 {\ndisplay:flex;\n}\n.slider-item-container.sync-2 .content-box--html h3 {\nfont-family: 'Poppins';\n    font-size: 30px;\n    font-weight: 800;\n    margin: 0;\npadding-left: 30px;\n}\n.slider-item-container.sync-2 .content-box--html p {\nfont-family: 'Poppins';\n    font-size: 27px;\n    font-weight: 700;\n    margin: 0;\n}\n.slider-item-container.sync-2 .content-box--html h2 {\nfont-family: 'Poppins';\n    font-size: 40px;\n    font-weight: 800;\n    margin: 0;\npadding-left: 78px;\n}\n.slider-item-container.sync-2 .content-box--html h4 {\nfont-family: 'Poppins';\n    font-size: 30px;\n    font-weight: 700;\n    margin: 0;\npadding-left: 70px;\n}\n.slider-item-container.sync-2 .content-box--html {\nfloat: left;\ntext-align: center;\n}\n.slider-item-container.sync-2 .content-box--text {\nfont-size: 30px;\n    font-family: 'Pacifico', cursive;\nfloat: right;\n}\n.slider-item-container.sync-2 .content-box--button {\nfloat: left;\n}\n.slider-item-container.sync-2 .content-box--button a{\nborder-radius: 22px;\n}""}",0,"{""id"":""71"",""orderId"":""1"",""itemName"":""Slider Item 1"",""customImageUrl"":{""name"":""Syncing-slider-2.jpg"",""type"":""image\/png"",""tmp_name"":""\/tmp\/phpZSkPvr"",""error"":0,""size"":847931,""file"":""Syncing-slider-2.jpg"",""url"":""Syncing-slider-2.jpg"",""previewType"":""image"",""id"":""U3luY2luZy1zbGlkZXItMi5wbmc,"",""previewWidth"":5127,""previewHeight"":1064},""bgImageType"":""customImage"",""bgImage"":""pub\/media\/catalog\/tmp\/category\/Syncing-slider-2.jpg"",""bgPosition"":""center center"",""bgRepeat"":""repeat"",""bgSize"":""cover"",""itemCustomClass"":""sync-1"",""staticLink"":"""",""paddingTop"":""50"",""paddingRight"":15,""paddingBottom"":""50"",""paddingLeft"":15,""marginTop"":0,""marginRight"":0,""marginBottom"":0,""marginLeft"":0,""contentPaddingTop"":15,""contentPaddingRight"":15,""contentPaddingBottom"":15,""contentPaddingLeft"":15,""contentMarginTop"":0,""contentMarginRight"":0,""contentMarginBottom"":0,""contentMarginLeft"":""80"",""contentWidth"":""100"",""contentWidthUnit"":""%"",""contentHeight"":"""",""contentHeightUnit"":""px"",""contentPosition"":""custom"",""contentBgColor"":""#000000"",""contentOpacity"":0,""contentAnimation"":""0"",""contentAnimationDelay"":0,""blocks"":[{""blockId"":""block-3359792"",""type"":""html"",""customClass"":"""",""position"":""left"",""textAlign"":""left"",""contentType"":""custom"",""content"":""<p>THE NEW COLLECTION:<\/p>\n<p>TAKE YOU TO A DIFFERENT WORLD<\/p>"",""fontSize"":""14"",""textColor"":""#F26321"",""textColorHover"":""#ffffff"",""bgColor"":""#ffffff"",""bgColorHover"":""#F26321"",""borderColor"":""#F26321"",""borderColorHover"":""#F26321"",""btnUrl"":""customLink"",""customLink"":"""",""animation"":""0"",""animationDelay"":0,""paddingTop"":0,""paddingRight"":0,""paddingBottom"":0,""paddingLeft"":0,""marginTop"":0,""marginRight"":0,""marginBottom"":0,""marginLeft"":0,""width"":100,""widthUnit"":""%""},{""blockId"":""block-9367841"",""type"":""text"",""customClass"":"""",""position"":""left"",""textAlign"":""left"",""contentType"":""custom"",""content"":""Choose your favourite item today for special promotion code!   "",""fontSize"":""20"",""textColor"":""#ffffff"",""textColorHover"":""#ffffff"",""bgColor"":""#ffffff"",""bgColorHover"":""#F26321"",""borderColor"":""#F26321"",""borderColorHover"":""#F26321"",""btnUrl"":""customLink"",""customLink"":"""",""animation"":""0"",""animationDelay"":0,""paddingTop"":0,""paddingRight"":0,""paddingBottom"":0,""paddingLeft"":0,""marginTop"":0,""marginRight"":0,""marginBottom"":0,""marginLeft"":0,""width"":100,""widthUnit"":""%""}]}",1
slider syncing 1,1,2,"{""customClass"":"""",""numOfItemsShow"":2,""optionChooseNumOfItemShow"":[1,2],""sliderAnimate"":""0"",""sliderAnimateOut"":""0"",""sliderMargin"":0,""sliderArrows"":true,""sliderDots"":0,""autoHeight"":0,""sliderLoop"":0,""autoPlay"":0,""autoPlaySpeed"":0,""pauseHover"":0,""draggable"":1,""centerMode"":0,""customCss"":""@import url('https:\/\/fonts.googleapis.com\/css?family=Poppins:400,700,800&display=swap');\n@import url('https:\/\/fonts.googleapis.com\/css?family=Pacifico&display=swap');\n.slider-item-container.sync-1 .content-box--html p {\nfont-family: 'Poppins';\n    font-size: 30px;\n    font-weight: 800;\n    margin: 0;\n}\n.slider-item-container.sync-1 .content-box--text h3{\nmargin: 0;\n    color: #FDFCFA;\n    font-size: inherit;\n    display: inline-block;\n    background: #acacac;\n    padding: 5px 20px;\n    border-radius: 20px;\n    box-shadow: 0px 1px 3px #000;\n}\n.magenest-slider.sync1 {\ndisplay:flex;\n}\n.slider-item-container.sync-2 .content-box--html h3 {\nfont-family: 'Poppins';\n    font-size: 30px;\n    font-weight: 800;\n    margin: 0;\npadding-left: 30px;\n}\n.slider-item-container.sync-2 .content-box--html p {\nfont-family: 'Poppins';\n    font-size: 27px;\n    font-weight: 700;\n    margin: 0;\n}\n.slider-item-container.sync-2 .content-box--html h2 {\nfont-family: 'Poppins';\n    font-size: 40px;\n    font-weight: 800;\n    margin: 0;\npadding-left: 78px;\n}\n.slider-item-container.sync-2 .content-box--html h4 {\nfont-family: 'Poppins';\n    font-size: 30px;\n    font-weight: 700;\n    margin: 0;\npadding-left: 70px;\n}\n.slider-item-container.sync-2 .content-box--html {\nfloat: left;\ntext-align: center;\n}\n.slider-item-container.sync-2 .content-box--text {\nfont-size: 30px;\n    font-family: 'Pacifico', cursive;\nfloat: right;\n}\n.slider-item-container.sync-2 .content-box--button {\nfloat: left;\n}\n.slider-item-container.sync-2 .content-box--button a{\nborder-radius: 22px;\n}""}",0,"{""id"":""74"",""orderId"":""2"",""itemName"":""Slider Item 1"",""customImageUrl"":{""name"":""Syncing-slider-child-2.jpg"",""type"":""image\/png"",""tmp_name"":""\/tmp\/phpmDhXJD"",""error"":0,""size"":391907,""file"":""Syncing-slider-child-2.jpg"",""url"":""Syncing-slider-child-2.jpg""},""bgImageType"":""customImage"",""bgImage"":""pub\/media\/catalog\/tmp\/category\/Syncing-slider-child-2.jg"",""bgPosition"":""center center"",""bgRepeat"":""repeat"",""bgSize"":""cover"",""itemCustomClass"":""sync-child-2"",""staticLink"":"""",""paddingTop"":15,""paddingRight"":15,""paddingBottom"":15,""paddingLeft"":15,""marginTop"":0,""marginRight"":0,""marginBottom"":0,""marginLeft"":0,""contentPaddingTop"":15,""contentPaddingRight"":15,""contentPaddingBottom"":15,""contentPaddingLeft"":15,""contentMarginTop"":0,""contentMarginRight"":0,""contentMarginBottom"":0,""contentMarginLeft"":0,""contentWidth"":100,""contentWidthUnit"":""%"",""contentHeight"":"""",""contentHeightUnit"":""px"",""contentPosition"":""left"",""contentBgColor"":""#000000"",""contentOpacity"":0,""contentAnimation"":""0"",""contentAnimationDelay"":0,""blocks"":[{""blockId"":""block-6574030"",""type"":""text"",""customClass"":"""",""position"":""center"",""textAlign"":""center"",""contentType"":""custom"",""content"":""WOMEN CLOTHES"",""fontSize"":""20"",""textColor"":""#ffffff"",""textColorHover"":""#ffffff"",""bgColor"":""#ffffff"",""bgColorHover"":""#F26321"",""borderColor"":""#F26321"",""borderColorHover"":""#F26321"",""btnUrl"":""customLink"",""customLink"":"""",""animation"":""0"",""animationDelay"":0,""paddingTop"":0,""paddingRight"":0,""paddingBottom"":0,""paddingLeft"":0,""marginTop"":0,""marginRight"":0,""marginBottom"":0,""marginLeft"":0,""width"":100,""widthUnit"":""%""}]}",2
Template 3,1,0,"{""customClass"":"""",""numOfItemsShow"":1,""optionChooseNumOfItemShow"":[1],""sliderAnimate"":""0"",""sliderAnimateOut"":""0"",""sliderMargin"":0,""sliderArrows"":true,""sliderDots"":0,""autoHeight"":0,""sliderLoop"":0,""autoPlay"":0,""autoPlaySpeed"":0,""pauseHover"":0,""draggable"":1,""centerMode"":0,""customCss"":""@import url('https:\/\/fonts.googleapis.com\/css?family=Poppins:300,400,600&display=swap');\n.template-banner-3  {\n    overflow: hidden;\n}\n.template-banner-3 .content-box.content-box--html {\nfloat: left;\n    text-align: center;\n        transform: skew(-20deg);\n    background: #e99200;\n}\n.template-banner-3 .content-box.content-box--html h2 { \nfont-family: 'Poppins';\nfont-size: 36px;\n    color: #fff;\n    font-weight: 600;\n    text-transform: uppercase;\n}\n.template-banner-3 .content-box.content-box--html h5 { \nfont-family: 'Poppins';\nfont-size: 26px;\n    color: #f7eceb;\n    font-weight: 400;\n    text-transform: uppercase;\n}\n.template-banner-3 .content-box.content-box--html h6 { \nfont-family: 'Poppins';\nfont-size: 20px;\n    color: #f7eceb;\n    font-weight: 300;\n}\n.template-banner-3 a.magenest-button {\n    position: absolute;\n    top: 50%;\n    right: 10px;\n    transform: translateY(-50%);\n    border-radius: 40px;\nfont-family: 'Poppins';\nfont-size: 26px;\n \n    font-weight: 600;\n\n}""}",0,"{""id"":""95"",""orderId"":""1"",""itemName"":""Slider Item 1"",""customImageUrl"":{""name"":""template-psd-3.jpg"",""type"":""image\/jpeg"",""tmp_name"":""\/tmp\/phppvOtCZ"",""error"":0,""size"":96217,""file"":""template-psd-3.jpg"",""url"":""template-psd-3.jpg"",""previewType"":""image"",""id"":""dGVtcGxhdGUtcHNkLTMuanBn"",""previewWidth"":5167,""previewHeight"":958},""bgImageType"":""customImage"",""bgImage"":""pub\/media\/catalog\/tmp\/category\/template-psd-3.jpg"",""bgPosition"":""center center"",""bgRepeat"":""no-repeat"",""bgSize"":""cover"",""itemCustomClass"":""template-banner-3"",""staticLink"":"""",""paddingTop"":""0"",""paddingRight"":""0"",""paddingBottom"":""0"",""paddingLeft"":""0"",""marginTop"":0,""marginRight"":0,""marginBottom"":0,""marginLeft"":0,""contentPaddingTop"":""0"",""contentPaddingRight"":""0"",""contentPaddingBottom"":""0"",""contentPaddingLeft"":""0"",""contentMarginTop"":0,""contentMarginRight"":0,""contentMarginBottom"":0,""contentMarginLeft"":0,""contentWidth"":100,""contentWidthUnit"":""%"",""contentHeight"":"""",""contentHeightUnit"":""px"",""contentPosition"":""left"",""contentBgColor"":""#000000"",""contentOpacity"":0,""contentAnimation"":""0"",""contentAnimationDelay"":0,""blocks"":[{""blockId"":""block-5485656"",""type"":""html"",""customClass"":"""",""position"":""left"",""textAlign"":""left"",""contentType"":""custom"",""content"":""<h2>Brand new turbbo blender<\/h2>\n<h5>- With heating function -<\/h5>\n<h6>High power and high speed operations with 12 Preset Function<\/h6>\n<h2>USD $50<\/h2>"",""fontSize"":""14"",""textColor"":""#F26321"",""textColorHover"":""#ffffff"",""bgColor"":""#ffffff"",""bgColorHover"":""#F26321"",""borderColor"":""#F26321"",""borderColorHover"":""#F26321"",""btnUrl"":""customLink"",""customLink"":"""",""animation"":""0"",""animationDelay"":0,""paddingTop"":""30"",""paddingRight"":""30"",""paddingBottom"":""30"",""paddingLeft"":""30"",""marginTop"":""0"",""marginRight"":0,""marginBottom"":""0"",""marginLeft"":""60"",""width"":""50"",""widthUnit"":""%""},{""blockId"":""block-6040281"",""type"":""button"",""customClass"":"""",""position"":""right"",""textAlign"":""left"",""contentType"":""custom"",""content"":""BUY NOW"",""fontSize"":""24"",""textColor"":""#e99200"",""textColorHover"":""#f7eceb"",""bgColor"":""#f7eceb"",""bgColorHover"":""#e99200"",""borderColor"":""#f7eceb"",""borderColorHover"":""#f7eceb"",""btnUrl"":""customLink"",""customLink"":"""",""animation"":""0"",""animationDelay"":0,""paddingTop"":0,""paddingRight"":0,""paddingBottom"":0,""paddingLeft"":0,""marginTop"":0,""marginRight"":0,""marginBottom"":0,""marginLeft"":0,""width"":""200"",""widthUnit"":""px""}],""blockSelecting"":1}",1
Slider Syncing 2,1,2,"{""customClass"":"""",""numOfItemsShow"":1,""optionChooseNumOfItemShow"":[1,2,3],""sliderAnimate"":""0"",""sliderAnimateOut"":""0"",""sliderMargin"":0,""sliderArrows"":true,""sliderDots"":0,""autoHeight"":0,""sliderLoop"":0,""autoPlay"":true,""autoPlaySpeed"":""3000"",""pauseHover"":true,""draggable"":1,""centerMode"":0,""customCss"":""@import url('https:\/\/fonts.googleapis.com\/css?family=Poppins:400,600&display=swap');\n.syncing-template-2 h6 {\nfont-size: 30px;\n    font-family: 'Poppins';\n    color: #fff;\n    -webkit-text-fill-color: white;\n    -webkit-text-stroke-width: 1px;\n    -webkit-text-stroke-color: #000;\n    margin: 0;\n    text-transform: uppercase;\n    text-align: center;\n}\n.slider-item-container.template-2 .content-box--html h2 {\n                    text-align: left;\n                    font-size: 58px;\n                    font-family: 'Poppins';\n                    color: #e89100;\n                    font-weight: bold;\n                    margin: 0;\n                }\n.slider-item-container.template-2 .content-box--html p {\n                    text-align: left;\n                    font-size: 20px;\n                    font-family: 'Poppins';\n                    color: #e89100;\n                    margin-left: 14px;\n    \n            }\n.slider-item-container.template-2  .content-box--button {\n               text-transform: uppercase;\n                width: 50%;\n                float: left;\n    \n}\n.slider-item-container.template-1 .content-box--html p {\n                    text-align: center;\n                    font-size: 20px;\n                    font-family: 'Poppins';\n                    color: #fff;\n                }\n.slider-item-container.template-1 .content-box--html h3 {\n                    text-align: center;\n                    font-size: 42px;\n                    font-family: 'Poppins';\n                    color: #fff;\n        }\n.slider-item-container.template-1 .magenest-button {\n            background-color: transparent;\n            border: 2px solid #ffffff;\n    }\n.template-banner-3  {\n    overflow: hidden;\n}\n.template-banner-3 .content-box.content-box--html {\nfloat: left;\n    text-align: center;\n        transform: skew(-20deg);\n    background: #e99200;\n}\n.template-banner-3 .content-box.content-box--html h2 { \nfont-family: 'Poppins';\nfont-size: 36px;\n    color: #fff;\n    font-weight: 600;\n    text-transform: uppercase;\n}\n.template-banner-3 .content-box.content-box--html h5 { \nfont-family: 'Poppins';\nfont-size: 26px;\n    color: #f7eceb;\n    font-weight: 400;\n    text-transform: uppercase;\n}\n.template-banner-3 .content-box.content-box--html h6 { \nfont-family: 'Poppins';\nfont-size: 20px;\n    color: #f7eceb;\n    font-weight: 300;\n}\n.template-banner-3 a.magenest-button {\n    position: absolute;\n    top: 50%;\n    right: 10px;\n    transform: translateY(-50%);\n    border-radius: 40px;\nfont-family: 'Poppins';\nfont-size: 26px;\n    font-weight: 600;\n}\n.template-banner-3 .slider-item-content {\n display: inline-block;\n}""}",0,"{""id"":""105"",""orderId"":""3"",""itemName"":""Slider Item 1"",""customImageUrl"":{""name"":""template-psd-3.jpg"",""type"":""image\/jpeg"",""tmp_name"":""\/tmp\/php8XNajK"",""error"":0,""size"":96217,""file"":""template-psd-3.jpg"",""url"":""template-psd-3.jpg""},""bgImageType"":""customImage"",""bgImage"":""pub\/media\/catalog\/tmp\/category\/template-psd-3.jpg"",""bgPosition"":""center center"",""bgRepeat"":""no-repeat"",""bgSize"":""cover"",""itemCustomClass"":""template-banner-3"",""staticLink"":"""",""paddingTop"":""0"",""paddingRight"":""0"",""paddingBottom"":""0"",""paddingLeft"":""0"",""marginTop"":0,""marginRight"":0,""marginBottom"":0,""marginLeft"":0,""contentPaddingTop"":""0"",""contentPaddingRight"":""0"",""contentPaddingBottom"":""0"",""contentPaddingLeft"":""0"",""contentMarginTop"":0,""contentMarginRight"":0,""contentMarginBottom"":0,""contentMarginLeft"":0,""contentWidth"":100,""contentWidthUnit"":""%"",""contentHeight"":"""",""contentHeightUnit"":""px"",""contentPosition"":""left"",""contentBgColor"":""#000000"",""contentOpacity"":0,""contentAnimation"":""flash"",""contentAnimationDelay"":0,""blocks"":[{""blockId"":""block-2571115"",""type"":""html"",""customClass"":"""",""position"":""left"",""textAlign"":""left"",""contentType"":""custom"",""content"":""<h2>Brand new turbbo blender<\/h2>\n<h5>- With heating function -<\/h5>\n<h6>High power and high speed operations with 12 Preset Function<\/h6>\n<h2>USD $50<\/h2>"",""fontSize"":""14"",""textColor"":""#F26321"",""textColorHover"":""#ffffff"",""bgColor"":""#ffffff"",""bgColorHover"":""#F26321"",""borderColor"":""#F26321"",""borderColorHover"":""#F26321"",""btnUrl"":""customLink"",""customLink"":"""",""animation"":""0"",""animationDelay"":0,""paddingTop"":""30"",""paddingRight"":""30"",""paddingBottom"":""30"",""paddingLeft"":""30"",""marginTop"":0,""marginRight"":0,""marginBottom"":0,""marginLeft"":""60"",""width"":""50"",""widthUnit"":""%""},{""blockId"":""block-3435670"",""type"":""button"",""customClass"":"""",""position"":""right"",""textAlign"":""left"",""contentType"":""custom"",""content"":""BUY NOW"",""fontSize"":""24"",""textColor"":""#e99200"",""textColorHover"":""#f7eceb"",""bgColor"":""#f7eceb"",""bgColorHover"":""#e99200"",""borderColor"":""#f7eceb"",""borderColorHover"":""#f7eceb"",""btnUrl"":""customLink"",""customLink"":"""",""animation"":""0"",""animationDelay"":0,""paddingTop"":0,""paddingRight"":0,""paddingBottom"":0,""paddingLeft"":0,""marginTop"":0,""marginRight"":0,""marginBottom"":0,""marginLeft"":0,""width"":""200"",""widthUnit"":""px""}]}",3
Slider Syncing 2,1,2,"{""customClass"":"""",""numOfItemsShow"":3,""optionChooseNumOfItemShow"":[1,2,3],""sliderAnimate"":""0"",""sliderAnimateOut"":""0"",""sliderMargin"":0,""sliderArrows"":true,""sliderDots"":0,""autoHeight"":0,""sliderLoop"":0,""autoPlay"":true,""autoPlaySpeed"":""3000"",""pauseHover"":true,""draggable"":1,""centerMode"":0,""customCss"":""@import url('https:\/\/fonts.googleapis.com\/css?family=Poppins:400,600&display=swap');\n.syncing-template-2 h6 {\nfont-size: 30px;\n    font-family: 'Poppins';\n    color: #fff;\n    -webkit-text-fill-color: white;\n    -webkit-text-stroke-width: 1px;\n    -webkit-text-stroke-color: #000;\n    margin: 0;\n    text-transform: uppercase;\n    text-align: center;\n}\n.slider-item-container.template-2 .content-box--html h2 {\n                    text-align: left;\n                    font-size: 58px;\n                    font-family: 'Poppins';\n                    color: #e89100;\n                    font-weight: bold;\n                    margin: 0;\n                }\n.slider-item-container.template-2 .content-box--html p {\n                    text-align: left;\n                    font-size: 20px;\n                    font-family: 'Poppins';\n                    color: #e89100;\n                    margin-left: 14px;\n    \n            }\n.slider-item-container.template-2  .content-box--button {\n               text-transform: uppercase;\n                width: 50%;\n                float: left;\n    \n}\n.slider-item-container.template-1 .content-box--html p {\n                    text-align: center;\n                    font-size: 20px;\n                    font-family: 'Poppins';\n                    color: #fff;\n                }\n.slider-item-container.template-1 .content-box--html h3 {\n                    text-align: center;\n                    font-size: 42px;\n                    font-family: 'Poppins';\n                    color: #fff;\n        }\n.slider-item-container.template-1 .magenest-button {\n            background-color: transparent;\n            border: 2px solid #ffffff;\n    }\n.template-banner-3  {\n    overflow: hidden;\n}\n.template-banner-3 .content-box.content-box--html {\nfloat: left;\n    text-align: center;\n        transform: skew(-20deg);\n    background: #e99200;\n}\n.template-banner-3 .content-box.content-box--html h2 { \nfont-family: 'Poppins';\nfont-size: 36px;\n    color: #fff;\n    font-weight: 600;\n    text-transform: uppercase;\n}\n.template-banner-3 .content-box.content-box--html h5 { \nfont-family: 'Poppins';\nfont-size: 26px;\n    color: #f7eceb;\n    font-weight: 400;\n    text-transform: uppercase;\n}\n.template-banner-3 .content-box.content-box--html h6 { \nfont-family: 'Poppins';\nfont-size: 20px;\n    color: #f7eceb;\n    font-weight: 300;\n}\n.template-banner-3 a.magenest-button {\n    position: absolute;\n    top: 50%;\n    right: 10px;\n    transform: translateY(-50%);\n    border-radius: 40px;\nfont-family: 'Poppins';\nfont-size: 26px;\n    font-weight: 600;\n}\n.template-banner-3 .slider-item-content {\n display: inline-block;\n}""}",0,"{""id"":""106"",""orderId"":""1"",""itemName"":""Slider Item 1"",""customImageUrl"":{""name"":""template-vitamin-2_optimized.jpg"",""type"":""image\/jpeg"",""tmp_name"":""\/tmp\/phpPuCmLe"",""error"":0,""size"":131298,""file"":""template-vitamin-2_optimized.jpg"",""url"":""template-vitamin-2_optimized.jpg"",""previewType"":""image"",""id"":""dGVtcGxhdGUtdml0YW1pbi0yXzMuanBn"",""previewWidth"":5167,""previewHeight"":958},""bgImageType"":""customImage"",""bgImage"":""pub\/media\/catalog\/tmp\/category\/template-vitamin-2_optimized.jpg"",""bgPosition"":""top left"",""bgRepeat"":""repeat"",""bgSize"":""cover"",""itemCustomClass"":""syncing-template-2"",""staticLink"":"""",""paddingTop"":15,""paddingRight"":15,""paddingBottom"":15,""paddingLeft"":15,""marginTop"":0,""marginRight"":0,""marginBottom"":0,""marginLeft"":0,""contentPaddingTop"":""15"",""contentPaddingRight"":""15"",""contentPaddingBottom"":""15"",""contentPaddingLeft"":""15"",""contentMarginTop"":0,""contentMarginRight"":0,""contentMarginBottom"":0,""contentMarginLeft"":0,""contentWidth"":100,""contentWidthUnit"":""%"",""contentHeight"":"""",""contentHeightUnit"":""px"",""contentPosition"":""left"",""contentBgColor"":""#000000"",""contentOpacity"":0,""contentAnimation"":""0"",""contentAnimationDelay"":0,""blocks"":[{""blockId"":""block-2023341"",""type"":""html"",""customClass"":"""",""position"":""center"",""textAlign"":""left"",""contentType"":""custom"",""content"":""<h6>Vitamin C<\/h6>"",""fontSize"":""14"",""textColor"":""#F26321"",""textColorHover"":""#ffffff"",""bgColor"":""#ffffff"",""bgColorHover"":""#F26321"",""borderColor"":""#F26321"",""borderColorHover"":""#F26321"",""btnUrl"":""customLink"",""customLink"":"""",""animation"":""0"",""animationDelay"":0,""paddingTop"":0,""paddingRight"":0,""paddingBottom"":0,""paddingLeft"":0,""marginTop"":0,""marginRight"":0,""marginBottom"":0,""marginLeft"":0,""width"":100,""widthUnit"":""%""}]}",1
